<svg xmlns="http://www.w3.org/2000/svg" viewBox="0 0 23.5 23.5">
	<defs>
		<style>
			.svg_question .svg_color {
				fill: none;
				stroke: #e8ce3a;
				stroke-linecap: round;
				stroke-linejoin: round;
				stroke-width: 1.5px;
			}
		</style>
	</defs>
	<g class="svg_question">
		<path class="svg_color" d="M8.22,9.62a3.73,3.73,0,0,1,5.78-3A3.16,3.16,0,0,1,13.72,12c-.93.55-2,.82-2,1.44V15"></path>
		<circle class="svg_color" cx="11.75" cy="11.75" r="11"></circle>
		<line class="svg_color" x1="11.79" y1="17.68" x2="11.79" y2="18.4"></line>
	</g>
</svg>
